^K:\SOURCES JEU\PLUGY\PLUGY\PLUGY\BIGSTASH.CPP|K:\SOURCES JEU\PLUGY\PLUGY\PLUGY\D2WRAPPER.CPP|K:\SOURCES JEU\PLUGY\PLUGY\PLUGY\GLOBALVARIABLE.CPP|K:\SOURCES JEU\PLUGY\PLUGY\PLUGY\MAINSCREEN.CPP|K:\SOURCES JEU\PLUGY\PLUGY\PLUGY\PARAMETERS.CPP
K:\SOURCES JEU\PLUGY\PLUGY\PLUGY\RELEASE\MAINSCREEN.OBJ
K:\SOURCES JEU\PLUGY\PLUGY\PLUGY\RELEASE\BIGSTASH.OBJ
^K:\SOURCES JEU\PLUGY\PLUGY\PLUGY\D2WRAPPER.CPP|K:\SOURCES JEU\PLUGY\PLUGY\PLUGY\GLOBALVARIABLE.CPP|K:\SOURCES JEU\PLUGY\PLUGY\PLUGY\PARAMETERS.CPP
K:\SOURCES JEU\PLUGY\PLUGY\PLUGY\RELEASE\PARAMETERS.OBJ
K:\SOURCES JEU\PLUGY\PLUGY\PLUGY\RELEASE\GLOBALVARIABLE.OBJ
K:\SOURCES JEU\PLUGY\PLUGY\PLUGY\RELEASE\D2WRAPPER.OBJ
^K:\SOURCES JEU\PLUGY\PLUGY\PLUGY\BIGSTASH.CPP|K:\SOURCES JEU\PLUGY\PLUGY\PLUGY\CLIENTSAVEFILE.CPP|K:\SOURCES JEU\PLUGY\PLUGY\PLUGY\COMMANDS.CPP|K:\SOURCES JEU\PLUGY\PLUGY\PLUGY\COMMON.CPP|K:\SOURCES JEU\PLUGY\PLUGY\PLUGY\CUSTOMLIBRARIES.CPP|K:\SOURCES JEU\PLUGY\PLUGY\PLUGY\D2FUNCTIONS.CPP|K:\SOURCES JEU\PLUGY\PLUGY\PLUGY\D2WRAPPER.CPP|K:\SOURCES JEU\PLUGY\PLUGY\PLUGY\ERROR.CPP|K:\SOURCES JEU\PLUGY\PLUGY\PLUGY\EXTENDEDSAVEFILE.CPP|K:\SOURCES JEU\PLUGY\PLUGY\PLUGY\EXTRAOPTIONS.CPP|K:\SOURCES JEU\PLUGY\PLUGY\PLUGY\GLOBALVARIABLE.CPP|K:\SOURCES JEU\PLUGY\PLUGY\PLUGY\INFINITYSTASH.CPP|K:\SOURCES JEU\PLUGY\PLUGY\PLUGY\INIFILE.CPP|K:\SOURCES JEU\PLUGY\PLUGY\PLUGY\INTERFACE_SKILLS.CPP|K:\SOURCES JEU\PLUGY\PLUGY\PLUGY\INTERFACE_STASH.CPP|K:\SOURCES JEU\PLUGY\PLUGY\PLUGY\INTERFACE_STATS.CPP|K:\SOURCES JEU\PLUGY\PLUGY\PLUGY\LANGUAGE.CPP|K:\SOURCES JEU\PLUGY\PLUGY\PLUGY\LOADPLAYERDATA.CPP|K:\SOURCES JEU\PLUGY\PLUGY\PLUGY\MAINSCREEN.CPP|K:\SOURCES JEU\PLUGY\PLUGY\PLUGY\MODIFMEMORY.CPP|K:\SOURCES JEU\PLUGY\PLUGY\PLUGY\NEWINTERFACES.CPP|K:\SOURCES JEU\PLUGY\PLUGY\PLUGY\NEWINTERFACE_CUBELISTING.CPP|K:\SOURCES JEU\PLUGY\PLUGY\PLUGY\NEWINTERFACE_RUNEWORDS.CPP|K:\SOURCES JEU\PLUGY\PLUGY\PLUGY\NEWINTERFACE_STATS.CPP|K:\SOURCES JEU\PLUGY\PLUGY\PLUGY\NEWINTERFACE_STATSPAGETWO.CPP|K:\SOURCES JEU\PLUGY\PLUGY\PLUGY\OTHERSFEATURES.CPP|K:\SOURCES JEU\PLUGY\PLUGY\PLUGY\PARAMETERS.CPP|K:\SOURCES JEU\PLUGY\PLUGY\PLUGY\PLAYERCUSTOMDATA.CPP|K:\SOURCES JEU\PLUGY\PLUGY\PLUGY\PLUGY.CPP|K:\SOURCES JEU\PLUGY\PLUGY\PLUGY\PLUGYFILES.CPP|K:\SOURCES JEU\PLUGY\PLUGY\PLUGY\SAVEPATH.CPP|K:\SOURCES JEU\PLUGY\PLUGY\PLUGY\SAVEPLAYERDATA.CPP|K:\SOURCES JEU\PLUGY\PLUGY\PLUGY\SHAREDSAVEFILE.CPP|K:\SOURCES JEU\PLUGY\PLUGY\PLUGY\SKILLPERLEVELUP.CPP|K:\SOURCES JEU\PLUGY\PLUGY\PLUGY\SKILLSPOINTS.CPP|K:\SOURCES JEU\PLUGY\PLUGY\PLUGY\STATPERLEVELUP.CPP|K:\SOURCES JEU\PLUGY\PLUGY\PLUGY\STATSPOINTS.CPP|K:\SOURCES JEU\PLUGY\PLUGY\PLUGY\UBERQUEST.CPP|K:\SOURCES JEU\PLUGY\PLUGY\PLUGY\UPDATECLIENT.CPP|K:\SOURCES JEU\PLUGY\PLUGY\PLUGY\UPDATESERVER.CPP|K:\SOURCES JEU\PLUGY\PLUGY\PLUGY\WORLDEVENT.CPP
K:\SOURCES JEU\PLUGY\PLUGY\PLUGY\RELEASE\MODIFMEMORY.OBJ
K:\SOURCES JEU\PLUGY\PLUGY\PLUGY\RELEASE\MAINSCREEN.OBJ
K:\SOURCES JEU\PLUGY\PLUGY\PLUGY\RELEASE\LOADPLAYERDATA.OBJ
K:\SOURCES JEU\PLUGY\PLUGY\PLUGY\RELEASE\LANGUAGE.OBJ
K:\SOURCES JEU\PLUGY\PLUGY\PLUGY\RELEASE\INTERFACE_STATS.OBJ
K:\SOURCES JEU\PLUGY\PLUGY\PLUGY\RELEASE\INTERFACE_STASH.OBJ
K:\SOURCES JEU\PLUGY\PLUGY\PLUGY\RELEASE\INTERFACE_SKILLS.OBJ
K:\SOURCES JEU\PLUGY\PLUGY\PLUGY\RELEASE\INIFILE.OBJ
K:\SOURCES JEU\PLUGY\PLUGY\PLUGY\RELEASE\INFINITYSTASH.OBJ
K:\SOURCES JEU\PLUGY\PLUGY\PLUGY\RELEASE\GLOBALVARIABLE.OBJ
K:\SOURCES JEU\PLUGY\PLUGY\PLUGY\RELEASE\EXTRAOPTIONS.OBJ
K:\SOURCES JEU\PLUGY\PLUGY\PLUGY\RELEASE\EXTENDEDSAVEFILE.OBJ
K:\SOURCES JEU\PLUGY\PLUGY\PLUGY\RELEASE\ERROR.OBJ
K:\SOURCES JEU\PLUGY\PLUGY\PLUGY\RELEASE\D2WRAPPER.OBJ
K:\SOURCES JEU\PLUGY\PLUGY\PLUGY\RELEASE\D2FUNCTIONS.OBJ
K:\SOURCES JEU\PLUGY\PLUGY\PLUGY\RELEASE\CUSTOMLIBRARIES.OBJ
K:\SOURCES JEU\PLUGY\PLUGY\PLUGY\RELEASE\COMMON.OBJ
K:\SOURCES JEU\PLUGY\PLUGY\PLUGY\RELEASE\COMMANDS.OBJ
K:\SOURCES JEU\PLUGY\PLUGY\PLUGY\RELEASE\CLIENTSAVEFILE.OBJ
K:\SOURCES JEU\PLUGY\PLUGY\PLUGY\RELEASE\BIGSTASH.OBJ
K:\SOURCES JEU\PLUGY\PLUGY\PLUGY\RELEASE\UPDATESERVER.OBJ
K:\SOURCES JEU\PLUGY\PLUGY\PLUGY\RELEASE\UPDATECLIENT.OBJ
K:\SOURCES JEU\PLUGY\PLUGY\PLUGY\RELEASE\UBERQUEST.OBJ
K:\SOURCES JEU\PLUGY\PLUGY\PLUGY\RELEASE\STATSPOINTS.OBJ
K:\SOURCES JEU\PLUGY\PLUGY\PLUGY\RELEASE\STATPERLEVELUP.OBJ
K:\SOURCES JEU\PLUGY\PLUGY\PLUGY\RELEASE\SKILLSPOINTS.OBJ
K:\SOURCES JEU\PLUGY\PLUGY\PLUGY\RELEASE\SKILLPERLEVELUP.OBJ
K:\SOURCES JEU\PLUGY\PLUGY\PLUGY\RELEASE\SHAREDSAVEFILE.OBJ
K:\SOURCES JEU\PLUGY\PLUGY\PLUGY\RELEASE\SAVEPLAYERDATA.OBJ
K:\SOURCES JEU\PLUGY\PLUGY\PLUGY\RELEASE\SAVEPATH.OBJ
K:\SOURCES JEU\PLUGY\PLUGY\PLUGY\RELEASE\PLUGYFILES.OBJ
K:\SOURCES JEU\PLUGY\PLUGY\PLUGY\RELEASE\PLUGY.OBJ
K:\SOURCES JEU\PLUGY\PLUGY\PLUGY\RELEASE\PLAYERCUSTOMDATA.OBJ
K:\SOURCES JEU\PLUGY\PLUGY\PLUGY\RELEASE\PARAMETERS.OBJ
K:\SOURCES JEU\PLUGY\PLUGY\PLUGY\RELEASE\OTHERSFEATURES.OBJ
K:\SOURCES JEU\PLUGY\PLUGY\PLUGY\RELEASE\NEWINTERFACE_STATSPAGETWO.OBJ
K:\SOURCES JEU\PLUGY\PLUGY\PLUGY\RELEASE\NEWINTERFACE_STATS.OBJ
K:\SOURCES JEU\PLUGY\PLUGY\PLUGY\RELEASE\NEWINTERFACE_RUNEWORDS.OBJ
K:\SOURCES JEU\PLUGY\PLUGY\PLUGY\RELEASE\NEWINTERFACE_CUBELISTING.OBJ
K:\SOURCES JEU\PLUGY\PLUGY\PLUGY\RELEASE\NEWINTERFACES.OBJ
K:\SOURCES JEU\PLUGY\PLUGY\PLUGY\RELEASE\WORLDEVENT.OBJ
^K:\SOURCES JEU\PLUGY\PLUGY\PLUGY\BIGSTASH.CPP|K:\SOURCES JEU\PLUGY\PLUGY\PLUGY\COMMANDS.CPP|K:\SOURCES JEU\PLUGY\PLUGY\PLUGY\COMMON.CPP|K:\SOURCES JEU\PLUGY\PLUGY\PLUGY\D2FUNCTIONS.CPP|K:\SOURCES JEU\PLUGY\PLUGY\PLUGY\D2WRAPPER.CPP|K:\SOURCES JEU\PLUGY\PLUGY\PLUGY\ERROR.CPP|K:\SOURCES JEU\PLUGY\PLUGY\PLUGY\EXTENDEDSAVEFILE.CPP|K:\SOURCES JEU\PLUGY\PLUGY\PLUGY\EXTRAOPTIONS.CPP|K:\SOURCES JEU\PLUGY\PLUGY\PLUGY\GLOBALVARIABLE.CPP|K:\SOURCES JEU\PLUGY\PLUGY\PLUGY\INFINITYSTASH.CPP|K:\SOURCES JEU\PLUGY\PLUGY\PLUGY\INIFILE.CPP
K:\SOURCES JEU\PLUGY\PLUGY\PLUGY\RELEASE\INIFILE.OBJ
K:\SOURCES JEU\PLUGY\PLUGY\PLUGY\RELEASE\INFINITYSTASH.OBJ
K:\SOURCES JEU\PLUGY\PLUGY\PLUGY\RELEASE\GLOBALVARIABLE.OBJ
K:\SOURCES JEU\PLUGY\PLUGY\PLUGY\RELEASE\EXTRAOPTIONS.OBJ
K:\SOURCES JEU\PLUGY\PLUGY\PLUGY\RELEASE\EXTENDEDSAVEFILE.OBJ
K:\SOURCES JEU\PLUGY\PLUGY\PLUGY\RELEASE\ERROR.OBJ
K:\SOURCES JEU\PLUGY\PLUGY\PLUGY\RELEASE\D2WRAPPER.OBJ
K:\SOURCES JEU\PLUGY\PLUGY\PLUGY\RELEASE\COMMON.OBJ
K:\SOURCES JEU\PLUGY\PLUGY\PLUGY\RELEASE\COMMANDS.OBJ
K:\SOURCES JEU\PLUGY\PLUGY\PLUGY\RELEASE\BIGSTASH.OBJ
^K:\SOURCES JEU\PLUGY\PLUGY\PLUGY\ERROR.CPP|K:\SOURCES JEU\PLUGY\PLUGY\PLUGY\EXTRAOPTIONS.CPP|K:\SOURCES JEU\PLUGY\PLUGY\PLUGY\GLOBALVARIABLE.CPP|K:\SOURCES JEU\PLUGY\PLUGY\PLUGY\INIFILE.CPP|K:\SOURCES JEU\PLUGY\PLUGY\PLUGY\INTERFACE_SKILLS.CPP|K:\SOURCES JEU\PLUGY\PLUGY\PLUGY\INTERFACE_STASH.CPP|K:\SOURCES JEU\PLUGY\PLUGY\PLUGY\INTERFACE_STATS.CPP|K:\SOURCES JEU\PLUGY\PLUGY\PLUGY\LANGUAGE.CPP|K:\SOURCES JEU\PLUGY\PLUGY\PLUGY\MAINSCREEN.CPP|K:\SOURCES JEU\PLUGY\PLUGY\PLUGY\NEWINTERFACES.CPP|K:\SOURCES JEU\PLUGY\PLUGY\PLUGY\NEWINTERFACE_CUBELISTING.CPP|K:\SOURCES JEU\PLUGY\PLUGY\PLUGY\NEWINTERFACE_RUNEWORDS.CPP|K:\SOURCES JEU\PLUGY\PLUGY\PLUGY\NEWINTERFACE_STATS.CPP|K:\SOURCES JEU\PLUGY\PLUGY\PLUGY\NEWINTERFACE_STATSPAGETWO.CPP|K:\SOURCES JEU\PLUGY\PLUGY\PLUGY\PARAMETERS.CPP|K:\SOURCES JEU\PLUGY\PLUGY\PLUGY\PLUGYFILES.CPP|K:\SOURCES JEU\PLUGY\PLUGY\PLUGY\STATSPOINTS.CPP
K:\SOURCES JEU\PLUGY\PLUGY\PLUGY\RELEASE\STATSPOINTS.OBJ
K:\SOURCES JEU\PLUGY\PLUGY\PLUGY\RELEASE\PLUGYFILES.OBJ
K:\SOURCES JEU\PLUGY\PLUGY\PLUGY\RELEASE\PARAMETERS.OBJ
K:\SOURCES JEU\PLUGY\PLUGY\PLUGY\RELEASE\NEWINTERFACES.OBJ
K:\SOURCES JEU\PLUGY\PLUGY\PLUGY\RELEASE\NEWINTERFACE_STATSPAGETWO.OBJ
K:\SOURCES JEU\PLUGY\PLUGY\PLUGY\RELEASE\NEWINTERFACE_STATS.OBJ
K:\SOURCES JEU\PLUGY\PLUGY\PLUGY\RELEASE\NEWINTERFACE_RUNEWORDS.OBJ
K:\SOURCES JEU\PLUGY\PLUGY\PLUGY\RELEASE\NEWINTERFACE_CUBELISTING.OBJ
K:\SOURCES JEU\PLUGY\PLUGY\PLUGY\RELEASE\MAINSCREEN.OBJ
K:\SOURCES JEU\PLUGY\PLUGY\PLUGY\RELEASE\LANGUAGE.OBJ
K:\SOURCES JEU\PLUGY\PLUGY\PLUGY\RELEASE\INTERFACE_STATS.OBJ
K:\SOURCES JEU\PLUGY\PLUGY\PLUGY\RELEASE\INTERFACE_STASH.OBJ
K:\SOURCES JEU\PLUGY\PLUGY\PLUGY\RELEASE\INTERFACE_SKILLS.OBJ
K:\SOURCES JEU\PLUGY\PLUGY\PLUGY\RELEASE\INIFILE.OBJ
K:\SOURCES JEU\PLUGY\PLUGY\PLUGY\RELEASE\GLOBALVARIABLE.OBJ
K:\SOURCES JEU\PLUGY\PLUGY\PLUGY\RELEASE\EXTRAOPTIONS.OBJ
K:\SOURCES JEU\PLUGY\PLUGY\PLUGY\RELEASE\ERROR.OBJ
^K:\SOURCES JEU\PLUGY\PLUGY\PLUGY\COMMON.CPP|K:\SOURCES JEU\PLUGY\PLUGY\PLUGY\INTERFACE_STATS.CPP
K:\SOURCES JEU\PLUGY\PLUGY\PLUGY\RELEASE\COMMON.OBJ
^K:\SOURCES JEU\PLUGY\PLUGY\PLUGY\INTERFACE_STATS.CPP|K:\SOURCES JEU\PLUGY\PLUGY\PLUGY\NEWINTERFACE_STATS.CPP|K:\SOURCES JEU\PLUGY\PLUGY\PLUGY\NEWINTERFACE_STATSPAGETWO.CPP
K:\SOURCES JEU\PLUGY\PLUGY\PLUGY\RELEASE\NEWINTERFACE_STATSPAGETWO.OBJ
K:\SOURCES JEU\PLUGY\PLUGY\PLUGY\RELEASE\NEWINTERFACE_STATS.OBJ
^K:\SOURCES JEU\PLUGY\PLUGY\PLUGY\INTERFACE_STATS.CPP|K:\SOURCES JEU\PLUGY\PLUGY\PLUGY\NEWINTERFACE_STATS.CPP
K:\SOURCES JEU\PLUGY\PLUGY\PLUGY\RELEASE\NEWINTERFACE_STATS.OBJ
^K:\SOURCES JEU\PLUGY\PLUGY\PLUGY\BIGSTASH.CPP|K:\SOURCES JEU\PLUGY\PLUGY\PLUGY\COMMANDS.CPP|K:\SOURCES JEU\PLUGY\PLUGY\PLUGY\COMMON.CPP|K:\SOURCES JEU\PLUGY\PLUGY\PLUGY\CUSTOMLIBRARIES.CPP|K:\SOURCES JEU\PLUGY\PLUGY\PLUGY\D2FUNCTIONS.CPP|K:\SOURCES JEU\PLUGY\PLUGY\PLUGY\D2WRAPPER.CPP|K:\SOURCES JEU\PLUGY\PLUGY\PLUGY\ERROR.CPP|K:\SOURCES JEU\PLUGY\PLUGY\PLUGY\EXTENDEDSAVEFILE.CPP|K:\SOURCES JEU\PLUGY\PLUGY\PLUGY\EXTRAOPTIONS.CPP|K:\SOURCES JEU\PLUGY\PLUGY\PLUGY\GLOBALVARIABLE.CPP|K:\SOURCES JEU\PLUGY\PLUGY\PLUGY\INFINITYSTASH.CPP|K:\SOURCES JEU\PLUGY\PLUGY\PLUGY\INIFILE.CPP|K:\SOURCES JEU\PLUGY\PLUGY\PLUGY\INTERFACE_SKILLS.CPP|K:\SOURCES JEU\PLUGY\PLUGY\PLUGY\INTERFACE_STASH.CPP|K:\SOURCES JEU\PLUGY\PLUGY\PLUGY\INTERFACE_STATS.CPP|K:\SOURCES JEU\PLUGY\PLUGY\PLUGY\LANGUAGE.CPP|K:\SOURCES JEU\PLUGY\PLUGY\PLUGY\LOADPLAYERDATA.CPP|K:\SOURCES JEU\PLUGY\PLUGY\PLUGY\MAINSCREEN.CPP|K:\SOURCES JEU\PLUGY\PLUGY\PLUGY\MODIFMEMORY.CPP|K:\SOURCES JEU\PLUGY\PLUGY\PLUGY\NEWINTERFACES.CPP|K:\SOURCES JEU\PLUGY\PLUGY\PLUGY\NEWINTERFACE_CUBELISTING.CPP|K:\SOURCES JEU\PLUGY\PLUGY\PLUGY\NEWINTERFACE_RUNEWORDS.CPP|K:\SOURCES JEU\PLUGY\PLUGY\PLUGY\NEWINTERFACE_STATS.CPP|K:\SOURCES JEU\PLUGY\PLUGY\PLUGY\NEWINTERFACE_STATSPAGETWO.CPP|K:\SOURCES JEU\PLUGY\PLUGY\PLUGY\OTHERSFEATURES.CPP|K:\SOURCES JEU\PLUGY\PLUGY\PLUGY\PARAMETERS.CPP|K:\SOURCES JEU\PLUGY\PLUGY\PLUGY\PLAYERCUSTOMDATA.CPP|K:\SOURCES JEU\PLUGY\PLUGY\PLUGY\PLUGYFILES.CPP|K:\SOURCES JEU\PLUGY\PLUGY\PLUGY\SAVEPATH.CPP|K:\SOURCES JEU\PLUGY\PLUGY\PLUGY\SAVEPLAYERDATA.CPP|K:\SOURCES JEU\PLUGY\PLUGY\PLUGY\SHAREDSAVEFILE.CPP|K:\SOURCES JEU\PLUGY\PLUGY\PLUGY\SKILLPERLEVELUP.CPP|K:\SOURCES JEU\PLUGY\PLUGY\PLUGY\SKILLSPOINTS.CPP|K:\SOURCES JEU\PLUGY\PLUGY\PLUGY\STATPERLEVELUP.CPP|K:\SOURCES JEU\PLUGY\PLUGY\PLUGY\STATSPOINTS.CPP|K:\SOURCES JEU\PLUGY\PLUGY\PLUGY\UBERQUEST.CPP|K:\SOURCES JEU\PLUGY\PLUGY\PLUGY\UPDATECLIENT.CPP|K:\SOURCES JEU\PLUGY\PLUGY\PLUGY\UPDATESERVER.CPP|K:\SOURCES JEU\PLUGY\PLUGY\PLUGY\WORLDEVENT.CPP
K:\SOURCES JEU\PLUGY\PLUGY\PLUGY\RELEASE\NEWINTERFACE_CUBELISTING.OBJ
K:\SOURCES JEU\PLUGY\PLUGY\PLUGY\RELEASE\MODIFMEMORY.OBJ
K:\SOURCES JEU\PLUGY\PLUGY\PLUGY\RELEASE\MAINSCREEN.OBJ
K:\SOURCES JEU\PLUGY\PLUGY\PLUGY\RELEASE\LOADPLAYERDATA.OBJ
K:\SOURCES JEU\PLUGY\PLUGY\PLUGY\RELEASE\LANGUAGE.OBJ
K:\SOURCES JEU\PLUGY\PLUGY\PLUGY\RELEASE\INTERFACE_STATS.OBJ
K:\SOURCES JEU\PLUGY\PLUGY\PLUGY\RELEASE\INTERFACE_STASH.OBJ
K:\SOURCES JEU\PLUGY\PLUGY\PLUGY\RELEASE\INTERFACE_SKILLS.OBJ
K:\SOURCES JEU\PLUGY\PLUGY\PLUGY\RELEASE\INFINITYSTASH.OBJ
K:\SOURCES JEU\PLUGY\PLUGY\PLUGY\RELEASE\INIFILE.OBJ
K:\SOURCES JEU\PLUGY\PLUGY\PLUGY\RELEASE\GLOBALVARIABLE.OBJ
K:\SOURCES JEU\PLUGY\PLUGY\PLUGY\RELEASE\EXTRAOPTIONS.OBJ
K:\SOURCES JEU\PLUGY\PLUGY\PLUGY\RELEASE\EXTENDEDSAVEFILE.OBJ
K:\SOURCES JEU\PLUGY\PLUGY\PLUGY\RELEASE\ERROR.OBJ
K:\SOURCES JEU\PLUGY\PLUGY\PLUGY\RELEASE\D2WRAPPER.OBJ
K:\SOURCES JEU\PLUGY\PLUGY\PLUGY\RELEASE\D2FUNCTIONS.OBJ
K:\SOURCES JEU\PLUGY\PLUGY\PLUGY\RELEASE\CUSTOMLIBRARIES.OBJ
K:\SOURCES JEU\PLUGY\PLUGY\PLUGY\RELEASE\COMMON.OBJ
K:\SOURCES JEU\PLUGY\PLUGY\PLUGY\RELEASE\COMMANDS.OBJ
K:\SOURCES JEU\PLUGY\PLUGY\PLUGY\RELEASE\BIGSTASH.OBJ
K:\SOURCES JEU\PLUGY\PLUGY\PLUGY\RELEASE\WORLDEVENT.OBJ
K:\SOURCES JEU\PLUGY\PLUGY\PLUGY\RELEASE\UPDATESERVER.OBJ
K:\SOURCES JEU\PLUGY\PLUGY\PLUGY\RELEASE\UPDATECLIENT.OBJ
K:\SOURCES JEU\PLUGY\PLUGY\PLUGY\RELEASE\UBERQUEST.OBJ
K:\SOURCES JEU\PLUGY\PLUGY\PLUGY\RELEASE\STATSPOINTS.OBJ
K:\SOURCES JEU\PLUGY\PLUGY\PLUGY\RELEASE\STATPERLEVELUP.OBJ
K:\SOURCES JEU\PLUGY\PLUGY\PLUGY\RELEASE\SKILLSPOINTS.OBJ
K:\SOURCES JEU\PLUGY\PLUGY\PLUGY\RELEASE\SKILLPERLEVELUP.OBJ
K:\SOURCES JEU\PLUGY\PLUGY\PLUGY\RELEASE\SHAREDSAVEFILE.OBJ
K:\SOURCES JEU\PLUGY\PLUGY\PLUGY\RELEASE\SAVEPLAYERDATA.OBJ
K:\SOURCES JEU\PLUGY\PLUGY\PLUGY\RELEASE\SAVEPATH.OBJ
K:\SOURCES JEU\PLUGY\PLUGY\PLUGY\RELEASE\PLUGYFILES.OBJ
K:\SOURCES JEU\PLUGY\PLUGY\PLUGY\RELEASE\PLAYERCUSTOMDATA.OBJ
K:\SOURCES JEU\PLUGY\PLUGY\PLUGY\RELEASE\PARAMETERS.OBJ
K:\SOURCES JEU\PLUGY\PLUGY\PLUGY\RELEASE\OTHERSFEATURES.OBJ
K:\SOURCES JEU\PLUGY\PLUGY\PLUGY\RELEASE\NEWINTERFACES.OBJ
K:\SOURCES JEU\PLUGY\PLUGY\PLUGY\RELEASE\NEWINTERFACE_STATSPAGETWO.OBJ
K:\SOURCES JEU\PLUGY\PLUGY\PLUGY\RELEASE\NEWINTERFACE_STATS.OBJ
K:\SOURCES JEU\PLUGY\PLUGY\PLUGY\RELEASE\NEWINTERFACE_RUNEWORDS.OBJ
^K:\SOURCES JEU\PLUGY\PLUGY\PLUGY\INTERFACE_STATS.CPP|K:\SOURCES JEU\PLUGY\PLUGY\PLUGY\NEWINTERFACE_RUNEWORDS.CPP
K:\SOURCES JEU\PLUGY\PLUGY\PLUGY\RELEASE\NEWINTERFACE_RUNEWORDS.OBJ
K:\SOURCES JEU\PLUGY\PLUGY\PLUGY\RELEASE\INTERFACE_STATS.OBJ
^K:\SOURCES JEU\PLUGY\PLUGY\PLUGY\NEWINTERFACE_RUNEWORDS.CPP
K:\SOURCES JEU\PLUGY\PLUGY\PLUGY\RELEASE\NEWINTERFACE_RUNEWORDS.OBJ
^K:\SOURCES JEU\PLUGY\PLUGY\PLUGY\NEWINTERFACE_STATS.CPP|K:\SOURCES JEU\PLUGY\PLUGY\PLUGY\NEWINTERFACE_STATSPAGETWO.CPP
K:\SOURCES JEU\PLUGY\PLUGY\PLUGY\RELEASE\NEWINTERFACE_STATSPAGETWO.OBJ
K:\SOURCES JEU\PLUGY\PLUGY\PLUGY\RELEASE\NEWINTERFACE_STATS.OBJ
^K:\SOURCES JEU\PLUGY\PLUGY\PLUGY\NEWINTERFACE_STATSPAGETWO.CPP
K:\SOURCES JEU\PLUGY\PLUGY\PLUGY\RELEASE\NEWINTERFACE_STATSPAGETWO.OBJ
^K:\SOURCES JEU\PLUGY\PLUGY\PLUGY\CUSTOMLIBRARIES.CPP|K:\SOURCES JEU\PLUGY\PLUGY\PLUGY\D2WRAPPER.CPP|K:\SOURCES JEU\PLUGY\PLUGY\PLUGY\EXTENDEDSAVEFILE.CPP|K:\SOURCES JEU\PLUGY\PLUGY\PLUGY\SHAREDSAVEFILE.CPP
K:\SOURCES JEU\PLUGY\PLUGY\PLUGY\RELEASE\SHAREDSAVEFILE.OBJ
K:\SOURCES JEU\PLUGY\PLUGY\PLUGY\RELEASE\EXTENDEDSAVEFILE.OBJ
K:\SOURCES JEU\PLUGY\PLUGY\PLUGY\RELEASE\D2WRAPPER.OBJ
K:\SOURCES JEU\PLUGY\PLUGY\PLUGY\RELEASE\CUSTOMLIBRARIES.OBJ
