^K:\sources jeu\plugY\plugy\PlugY\PlugY.vcxproj
K:\sources jeu\plugY\plugy\PlugY\Release\PlugY.lib
K:\sources jeu\plugY\plugy\PlugY\Release\PlugY.exp
^K:\sources jeu\plugY\plugy\PlugY\PlugY.vcxproj
K:\sources jeu\plugY\plugy\PlugY\Release\PlugY.lib
K:\sources jeu\plugY\plugy\PlugY\Release\PlugY.exp
^K:\sources jeu\plugY\plugy\PlugY\PlugY.vcxproj
K:\sources jeu\plugY\plugy\PlugY\Release\PlugY.lib
K:\sources jeu\plugY\plugy\PlugY\Release\PlugY.exp
^K:\sources jeu\plugY\plugy\PlugY\PlugY.vcxproj
K:\sources jeu\plugY\plugy\PlugY\Release\PlugY.lib
K:\sources jeu\plugY\plugy\PlugY\Release\PlugY.exp
^K:\sources jeu\plugY\plugy\PlugY\PlugY.vcxproj
K:\sources jeu\plugY\plugy\PlugY\Release\PlugY.lib
K:\sources jeu\plugY\plugy\PlugY\Release\PlugY.exp
^K:\sources jeu\plugY\plugy\PlugY\PlugY.vcxproj
K:\sources jeu\plugY\plugy\PlugY\Release\PlugY.lib
K:\sources jeu\plugY\plugy\PlugY\Release\PlugY.exp
^K:\sources jeu\plugY\plugy\PlugY\PlugY.vcxproj
K:\sources jeu\plugY\plugy\PlugY\Release\PlugY.lib
K:\sources jeu\plugY\plugy\PlugY\Release\PlugY.exp
^K:\sources jeu\plugY\plugy\PlugY\PlugY.vcxproj
K:\sources jeu\plugY\plugy\PlugY\Release\PlugY.lib
K:\sources jeu\plugY\plugy\PlugY\Release\PlugY.exp
^K:\sources jeu\plugY\plugy\PlugY\PlugY.vcxproj
K:\sources jeu\plugY\plugy\PlugY\Release\PlugY.lib
K:\sources jeu\plugY\plugy\PlugY\Release\PlugY.exp
^K:\sources jeu\plugY\plugy\PlugY\PlugY.vcxproj
K:\sources jeu\plugY\plugy\PlugY\Release\PlugY.lib
K:\sources jeu\plugY\plugy\PlugY\Release\PlugY.exp
^K:\sources jeu\plugY\plugy\PlugY\PlugY.vcxproj
K:\sources jeu\plugY\plugy\PlugY\Release\PlugY.lib
K:\sources jeu\plugY\plugy\PlugY\Release\PlugY.exp
^K:\sources jeu\plugY\plugy\PlugY\PlugY.vcxproj
K:\sources jeu\plugY\plugy\PlugY\Release\PlugY.lib
K:\sources jeu\plugY\plugy\PlugY\Release\PlugY.exp
^K:\sources jeu\plugY\plugy\PlugY\PlugY.vcxproj
K:\sources jeu\plugY\plugy\PlugY\Release\PlugY.lib
K:\sources jeu\plugY\plugy\PlugY\Release\PlugY.exp
^K:\sources jeu\plugY\plugy\PlugY\PlugY.vcxproj
K:\sources jeu\plugY\plugy\PlugY\Release\PlugY.lib
K:\sources jeu\plugY\plugy\PlugY\Release\PlugY.exp
^K:\sources jeu\plugY\plugy\PlugY\PlugY.vcxproj
K:\sources jeu\plugY\plugy\PlugY\Release\PlugY.lib
K:\sources jeu\plugY\plugy\PlugY\Release\PlugY.exp
^K:\sources jeu\plugY\plugy\PlugY\PlugY.vcxproj
K:\sources jeu\plugY\plugy\PlugY\Release\PlugY.lib
K:\sources jeu\plugY\plugy\PlugY\Release\PlugY.exp
^K:\sources jeu\plugY\plugy\PlugY\PlugY.vcxproj
K:\sources jeu\plugY\plugy\PlugY\Release\PlugY.lib
K:\sources jeu\plugY\plugy\PlugY\Release\PlugY.exp
^K:\sources jeu\plugY\plugy\PlugY\PlugY.vcxproj
K:\sources jeu\plugY\plugy\PlugY\Release\PlugY.lib
K:\sources jeu\plugY\plugy\PlugY\Release\PlugY.exp
^K:\sources jeu\plugY\plugy\PlugY\PlugY.vcxproj
K:\sources jeu\plugY\plugy\PlugY\Release\PlugY.lib
K:\sources jeu\plugY\plugy\PlugY\Release\PlugY.exp
^K:\sources jeu\plugY\plugy\PlugY\PlugY.vcxproj
K:\sources jeu\plugY\plugy\PlugY\Release\PlugY.lib
K:\sources jeu\plugY\plugy\PlugY\Release\PlugY.exp
^K:\sources jeu\plugY\plugy\PlugY\PlugY.vcxproj
K:\sources jeu\plugY\plugy\PlugY\Release\PlugY.lib
K:\sources jeu\plugY\plugy\PlugY\Release\PlugY.exp
^K:\sources jeu\plugY\plugy\PlugY\PlugY.vcxproj
K:\sources jeu\plugY\plugy\PlugY\Release\PlugY.lib
K:\sources jeu\plugY\plugy\PlugY\Release\PlugY.exp
^K:\sources jeu\plugY\plugy\PlugY\PlugY.vcxproj
K:\sources jeu\plugY\plugy\PlugY\Release\PlugY.lib
K:\sources jeu\plugY\plugy\PlugY\Release\PlugY.exp
^K:\sources jeu\plugY\plugy\PlugY\PlugY.vcxproj
K:\sources jeu\plugY\plugy\PlugY\Release\PlugY.lib
K:\sources jeu\plugY\plugy\PlugY\Release\PlugY.exp
