^K:\SOURCES JEU\PLUGY\PLUGY\PLUGYRUN\RELEASE\PLUGYRUN.OBJ|K:\SOURCES JEU\PLUGY\PLUGY\PLUGYRUN\RELEASE\PLUGYRUN.RES
C:\WINDOWS\GLOBALIZATION\SORTING\SORTDEFAULT.NLS
C:\PROGRAM FILES (X86)\WINDOWS KITS\8.1\LIB\WINV6.3\UM\X86\KERNEL32.LIB
C:\PROGRAM FILES (X86)\WINDOWS KITS\8.1\LIB\WINV6.3\UM\X86\USER32.LIB
C:\PROGRAM FILES (X86)\WINDOWS KITS\8.1\LIB\WINV6.3\UM\X86\GDI32.LIB
C:\PROGRAM FILES (X86)\WINDOWS KITS\8.1\LIB\WINV6.3\UM\X86\WINSPOOL.LIB
C:\PROGRAM FILES (X86)\WINDOWS KITS\8.1\LIB\WINV6.3\UM\X86\COMDLG32.LIB
C:\PROGRAM FILES (X86)\WINDOWS KITS\8.1\LIB\WINV6.3\UM\X86\ADVAPI32.LIB
C:\PROGRAM FILES (X86)\WINDOWS KITS\8.1\LIB\WINV6.3\UM\X86\SHELL32.LIB
C:\PROGRAM FILES (X86)\WINDOWS KITS\8.1\LIB\WINV6.3\UM\X86\OLE32.LIB
C:\PROGRAM FILES (X86)\WINDOWS KITS\8.1\LIB\WINV6.3\UM\X86\OLEAUT32.LIB
C:\PROGRAM FILES (X86)\WINDOWS KITS\8.1\LIB\WINV6.3\UM\X86\UUID.LIB
C:\PROGRAM FILES (X86)\WINDOWS KITS\8.1\LIB\WINV6.3\UM\X86\ODBC32.LIB
C:\PROGRAM FILES (X86)\WINDOWS KITS\8.1\LIB\WINV6.3\UM\X86\ODBCCP32.LIB
K:\SOURCES JEU\PLUGY\PLUGY\PLUGYRUN\RELEASE\PLUGYRUN.RES
K:\SOURCES JEU\PLUGY\PLUGY\PLUGYRUN\RELEASE\PLUGYRUN.OBJ
L:\COMPILATEURS\VISUAL STUDIO 2017 RC\VC\TOOLS\MSVC\14.10.24629\LIB\X86\LIBCMT.LIB
L:\COMPILATEURS\VISUAL STUDIO 2017 RC\VC\TOOLS\MSVC\14.10.24629\LIB\X86\OLDNAMES.LIB
L:\COMPILATEURS\VISUAL STUDIO 2017 RC\VC\TOOLS\MSVC\14.10.24629\LIB\X86\LIBVCRUNTIME.LIB
C:\PROGRAM FILES (X86)\WINDOWS KITS\10\LIB\10.0.10240.0\UCRT\X86\LIBUCRT.LIB
C:\PROGRAM FILES (X86)\WINDOWS KITS\8.1\BIN\X86\RC.EXE
L:\COMPILATEURS\VISUAL STUDIO 2017 RC\VC\TOOLS\MSVC\14.10.24629\BIN\HOSTX86\X86\CVTRES.EXE
C:\WINDOWS\SYSTEM32\TZRES.DLL
C:\WINDOWS\SYSTEM32\RSAENH.DLL
